<?xml version="1.0" encoding="utf-8"?>
<!-- Generator: Adobe Illustrator 19.0.0, SVG Export Plug-In . SVG Version: 6.00 Build 0)  -->
<svg version="1.1" id="Layer_1" xmlns="http://www.w3.org/2000/svg" xmlns:xlink="http://www.w3.org/1999/xlink" x="0px" y="0px"
	 viewBox="0 0 250 250" style="enable-background:new 0 0 250 250;" xml:space="preserve">
<style type="text/css">
	.st0{fill:#FFFFFF;}
	.st1{fill:#F15822;}
</style>
<g id="XMLID_595_">
	<circle id="XMLID_131_" class="st0" cx="125" cy="125" r="125"/>
	<g id="XMLID_292_">
		<g id="XMLID_213_">
			<path id="XMLID_222_" d="M107.3,144.8v11.7h-2.7v-4.8h-5.3v4.8h-2.7v-11.7h2.7v4.6h5.3v-4.6H107.3z"/>
			<path id="XMLID_238_" d="M119.1,154.3v2.2h-9v-11.7h8.8v2.2h-6.1v2.5h5.4v2.1h-5.4v2.7H119.1z"/>
			<path id="XMLID_240_" d="M128.9,153.9h-5.4l-1,2.5h-2.8l5.2-11.7h2.7l5.2,11.7h-2.8L128.9,153.9z M128.1,151.9l-1.8-4.5l-1.8,4.5
				H128.1z"/>
			<path id="XMLID_243_" d="M144.6,144.8l-5,11.7h-2.7l-5-11.7h2.9l3.5,8.3l3.6-8.3H144.6z"/>
			<path id="XMLID_246_" d="M151,152.3v4.1h-2.7v-4.2l-4.5-7.5h2.9l3.1,5.2l3.1-5.2h2.6L151,152.3z"/>
			<path id="XMLID_248_" d="M98.9,164.3l-5,11.7h-2.7l-5-11.7h2.9l3.5,8.3l3.6-8.3H98.9z"/>
			<path id="XMLID_250_" d="M108.9,173.8v2.2h-9v-11.7h8.8v2.2h-6.1v2.5h5.4v2.1h-5.4v2.7H108.9z"/>
			<path id="XMLID_252_" d="M121.8,164.3V176h-2.7v-4.8h-5.3v4.8h-2.7v-11.7h2.7v4.6h5.3v-4.6H121.8z"/>
			<path id="XMLID_254_" d="M124.6,164.3h2.7V176h-2.7V164.3z"/>
			<path id="XMLID_256_" d="M132.4,175.4c-1-0.5-1.7-1.2-2.3-2.1c-0.6-0.9-0.8-2-0.8-3.1c0-1.2,0.3-2.2,0.8-3.1
				c0.5-0.9,1.3-1.6,2.3-2.1c1-0.5,2-0.8,3.2-0.8c1,0,1.9,0.2,2.7,0.5c0.8,0.4,1.5,0.9,2.1,1.5l-1.7,1.6c-0.8-0.9-1.8-1.4-2.9-1.4
				c-0.7,0-1.4,0.2-1.9,0.5c-0.6,0.3-1,0.8-1.3,1.3c-0.3,0.6-0.5,1.2-0.5,1.9c0,0.7,0.2,1.4,0.5,1.9c0.3,0.6,0.8,1,1.3,1.3
				c0.6,0.3,1.2,0.5,1.9,0.5c1.2,0,2.1-0.5,2.9-1.4l1.7,1.6c-0.6,0.7-1.2,1.2-2.1,1.5c-0.8,0.4-1.7,0.5-2.7,0.5
				C134.4,176.2,133.3,175.9,132.4,175.4z"/>
			<path id="XMLID_258_" d="M142.2,164.3h2.7v9.5h5.8v2.2h-8.5V164.3z"/>
			<path id="XMLID_261_" d="M161.3,173.8v2.2h-9v-11.7h8.8v2.2H155v2.5h5.4v2.1H155v2.7H161.3z"/>
		</g>
		<g id="XMLID_214_">
			<path id="XMLID_221_" class="st1" d="M95.8,117h-0.1c-3.8,0-7,2.9-7,6.5c0,1.7,0.6,3.3,1.9,4.6c1.3,1.4,3.1,2.1,5.1,2.1l0.1,0
				c3.8,0,7-2.9,7-6.5c0-1.7-0.6-3.3-1.9-4.6C99.6,117.8,97.8,117,95.8,117z"/>
			<path id="XMLID_220_" class="st1" d="M131.4,117h-0.1c-3.8,0-7,2.9-7,6.5c0,1.7,0.6,3.3,1.9,4.6c1.3,1.4,3.1,2.1,5.1,2.1l0.1,0
				c3.8,0,7-2.9,7-6.5c0-1.7-0.6-3.3-1.9-4.6C135.1,117.8,133.3,117,131.4,117z"/>
			<path id="XMLID_219_" class="st1" d="M148.6,117h-0.1c-3.8,0-7,2.9-7,6.5c0,1.7,0.6,3.3,1.9,4.6c1.3,1.4,3.1,2.1,5.1,2.1l0.1,0
				c3.8,0,7-2.9,7-6.5c0-1.7-0.6-3.3-1.9-4.6C152.3,117.8,150.5,117,148.6,117z"/>
			<path id="XMLID_215_" class="st1" d="M105.6,85.2v27.6h-1v-3.2h-0.9V91.1h-1c0-3,0-5.3,1.1-6.4c0.5-0.5,1.4-0.8,2.8-0.8v-2.4
				c-2,0-3.5,0.5-4.5,1.5c-1.7,1.7-1.8,4.5-1.7,8.1h-0.7v-2.3c0,0-18.6,3.6-19.3,3.8c-0.7,0.2-1.7,0.9-2.1,1.6l-0.7,1.1
				c-0.4,0.7-0.8,1.9-0.8,2.7l0,8.5l0,12.7c0,0.4,0,0.7-0.1,0.8c-0.2,0-0.5,0.1-0.6,1.4l-0.1,0.7c0,0.4,0.1,0.9,0.4,1.2
				c0.3,0.3,0.7,0.6,1.2,0.6l1.3,0.1c0.8,0,2.1,0.1,2.9,0.1l4.1,0.1c0-0.3,0-0.6,0-0.9c0.1-5.2,4.5-9.4,9.9-9.4l0.1,0
				c2.7,0,5.2,1.1,7.1,3c1.8,1.8,2.7,4.2,2.7,6.6c0,0,0,0,0,0l15.7,0c0-0.1,0-0.2,0-0.3c0,0,0,0,0,0c0-0.3,0-0.6,0.1-0.8
				c0-0.1,0-0.2,0-0.3c0-0.2,0.1-0.4,0.1-0.6c0-0.1,0-0.2,0.1-0.3c0.1-0.2,0.1-0.5,0.2-0.7c0-0.1,0.1-0.2,0.1-0.3
				c0-0.1,0.1-0.3,0.2-0.4c0.1-0.1,0.1-0.3,0.2-0.4c0-0.1,0.1-0.2,0.1-0.3c0.2-0.3,0.3-0.6,0.5-0.9c0,0,0-0.1,0.1-0.1h0
				c1.8-2.6,4.9-4.3,8.3-4.3h0.1h0h0c2.7,0,5.3,1.1,7.2,3c0.4,0.4,0.7,0.8,1,1.3h0.6c1.8-2.6,4.9-4.3,8.3-4.3h0.1h0h0
				c2.7,0,5.3,1.1,7.2,3c0.4,0.4,0.7,0.8,1,1.3h0c0,0,0,0,0,0c0.1,0.2,0.2,0.3,0.3,0.5c0,0.1,0.1,0.1,0.1,0.2
				c0.1,0.2,0.2,0.3,0.3,0.5c0,0.1,0.1,0.1,0.1,0.2c0.2,0.3,0.3,0.7,0.4,1c0,0.1,0,0.1,0.1,0.2c0,0.1,0.1,0.3,0.1,0.4
				c0,0.1,0.1,0.3,0.1,0.4c0,0.1,0,0.2,0.1,0.4c0,0.2,0.1,0.4,0.1,0.5c0,0.1,0,0.2,0,0.3c0,0.3,0,0.6,0,0.8c0,0,0,0,0,0.1l3.9,0
				v-5.5h1.4V85.2H105.6z M88.3,108.4c0,1.2-0.7,2.2-1.5,2.2H79c-0.8,0-1.5-1-1.5-2.2v-6.8c0-1.2,0.7-2.2,1.5-2.2h7.8
				c0.8,0,1.5,1,1.5,2.2V108.4z M95.3,104.6c0,0.7-0.3,1.3-0.7,1.3h-3.9c-0.4,0-0.7-0.6-0.7-1.3v-4.1c0-0.7,0.3-1.3,0.7-1.3h3.9
				c0.4,0,0.7,0.6,0.7,1.3V104.6z"/>
		</g>
	</g>
</g>
</svg>
